lab-exam-1/lab-exam-1.sim/sim_1/behav/xsim/simulate.log
Vivado Simulator 2019.1
Time resolution is 1 ps
I0 = 1, C = 0001, Y = 0000000000000010
I0 = 1, C = 0010, Y = 0000000000000100
I0 = 1, C = 0011, Y = 0000000000001000
I0 = 1, C = 0100, Y = 0000000000010000
I0 = 1, C = 0101, Y = 0000000000100000
I0 = 1, C = 0110, Y = 0000000001000000
I0 = 1, C = 0111, Y = 0000000010000000
I0 = 1, C = 1000, Y = 0000000100000000
I0 = 1, C = 1001, Y = 0000001000000000
I0 = 1, C = 1010, Y = 0000010000000000
I0 = 1, C = 1011, Y = 0000100000000000
I0 = 1, C = 1100, Y = 0001000000000000
I0 = 1, C = 1101, Y = 0010000000000000
I0 = 1, C = 1110, Y = 0100000000000000
I0 = 1, C = 1111, Y = 1000000000000000
I0 = 1, C = 0000, Y = 0000000000000001
I0 = 1, C = 0001, Y = 0000000000000010
I0 = 0, C = 0010, Y = 0000000000000000
I0 = 0, C = 0011, Y = 0000000000000000
I0 = 0, C = 0100, Y = 0000000000000000
I0 = 0, C = 0101, Y = 0000000000000000
I0 = 0, C = 0110, Y = 0000000000000000
